computeblob.vcd
$date
     Mar 09, 2021       21:24:05
$end

$version
 SystemC 2.3.3-Accellera --- Mar  8 2021 13:20:28
$end

$timescale
     1 ps
$end

$scope module SystemC $end
$var wire   32  aaaae  psums0 [31:0]  $end
$var wire   32  aaaaf  psums1 [31:0]  $end
$var wire   32  aaaag  psums2 [31:0]  $end
$var wire   32  aaaah  psums3 [31:0]  $end
$var wire   32  aaaai  psums4 [31:0]  $end
$var wire   32  aaaaj  psums5 [31:0]  $end
$var wire   32  aaaak  psums6 [31:0]  $end
$var wire   32  aaaal  psums7 [31:0]  $end
$var wire   32  aaaam  psums8 [31:0]  $end
$var wire   32  aaaan  psums9 [31:0]  $end
$var wire   32  aaaao  psums10 [31:0]  $end
$var wire   32  aaaap  psums11 [31:0]  $end
$var wire   32  aaaaq  psums12 [31:0]  $end
$var wire   32  aaaar  psums13 [31:0]  $end
$var wire   32  aaaas  psums14 [31:0]  $end
$var wire   32  aaaat  psums15 [31:0]  $end
$var wire   32  aaaau  psums16 [31:0]  $end
$var wire   32  aaaav  psums17 [31:0]  $end
$var wire   32  aaaaw  psums18 [31:0]  $end
$var wire   32  aaaax  psums19 [31:0]  $end
$var wire   32  aaaay  psums20 [31:0]  $end
$var wire   32  aaaaz  psums21 [31:0]  $end
$var wire   32  aaaba  psums22 [31:0]  $end
$var wire   32  aaabb  psums23 [31:0]  $end
$var wire   32  aaabc  psums24 [31:0]  $end
$var wire   32  aaabd  psums25 [31:0]  $end
$var wire   32  aaabe  psums26 [31:0]  $end
$var wire   32  aaabf  psums27 [31:0]  $end
$var wire   32  aaabg  pe_group_in_8 [31:0]  $end
$var wire   32  aaabh  pe_group_in_7 [31:0]  $end
$var wire   32  aaabi  pe_group_in_6 [31:0]  $end
$var wire   32  aaabj  pe_group_in_5 [31:0]  $end
$var wire   32  aaabk  pe_group_in_4 [31:0]  $end
$var wire   32  aaabl  pe_group_in_3 [31:0]  $end
$var wire   32  aaabm  pe_group_in_2 [31:0]  $end
$var wire   32  aaabn  pe_group_in_1 [31:0]  $end
$var wire   32  aaabo  pe_group_in_0 [31:0]  $end
$scope module ComputeBlob_tb $end
$scope module global_control_channel $end
$var wire    1  aaaaa  clock       $end
$var wire    1  aaaab  reset       $end
$var wire    1  aaaac  program       $end
$var wire    1  aaaad  enable       $end
$upscope $end
$upscope $end
$upscope $end
$enddefinitions  $end

$comment
All initial values are dumped below at time 0 sec = 0 timescale units.
$end

$dumpvars
1aaaaa
1aaaab
0aaaac
0aaaad
b0 aaaae
b0 aaaaf
b0 aaaag
b0 aaaah
b0 aaaai
b0 aaaaj
b0 aaaak
b0 aaaal
b0 aaaam
b0 aaaan
b0 aaaao
b0 aaaap
b0 aaaaq
b0 aaaar
b0 aaaas
b0 aaaat
b0 aaaau
b0 aaaav
b0 aaaaw
b0 aaaax
b0 aaaay
b0 aaaaz
b0 aaaba
b0 aaabb
b0 aaabc
b0 aaabd
b0 aaabe
b0 aaabf
b0 aaabg
b0 aaabh
b0 aaabi
b0 aaabj
b0 aaabk
b0 aaabl
b0 aaabm
b0 aaabn
b0 aaabo
$end

#500
0aaaaa

#1000
1aaaaa

#1500
0aaaaa

#2000
1aaaaa

#2500
0aaaaa

#3000
1aaaaa

#3500
0aaaaa

#4000
1aaaaa

#4500
0aaaaa

#5000
1aaaaa
0aaaab

#5500
0aaaaa

#6000
1aaaaa
1aaaad
b1 aaabo

#6500
0aaaaa

#7000
1aaaaa
b1 aaaaf
b10 aaaag
b11 aaaah
b10 aaabo

#7500
0aaaaa

#8000
1aaaaa
b10 aaaaf
b101 aaaag
b1000 aaaah
b11 aaaai
b11 aaabo

#8500
0aaaaa

#9000
1aaaaa
b11 aaaaf
b1000 aaaag
b1110 aaaah
b1000 aaaai
b11 aaaaj
b1011 aaabn
b100 aaabo

#9500
0aaaaa

#10000
1aaaaa
b100 aaaaf
b1011 aaaag
b10100 aaaah
b111010 aaaai
b111111 aaaaj
b1000101 aaaak
b1100 aaabn
b101 aaabo

#10500
0aaaaa

#11000
1aaaaa
b101 aaaaf
b1110 aaaag
b11010 aaaah
b1000100 aaaai
b1110110 aaaaj
b10000111 aaaak
b1000101 aaaal
b1101 aaabn
b110 aaabo

#11500
0aaaaa

#12000
1aaaaa
b110 aaaaf
b10001 aaaag
b100000 aaaah
b1001110 aaaai
b10000101 aaaaj
b11000100 aaaak
b10000111 aaaal
b1000101 aaaam
b10101 aaabm
b1110 aaabn
b111 aaabo

#12500
0aaaaa

#13000
1aaaaa
b111 aaaaf
b10100 aaaag
b100110 aaaah
b1011000 aaaai
b10010100 aaaaj
b11011001 aaaak
b101010111 aaaal
b100101111 aaaam
b100000010 aaaan
b10110 aaabm
b1111 aaabn
b1000 aaabo

#13500
0aaaaa

#14000
1aaaaa
b1000 aaaaf
b10111 aaaag
b101100 aaaah
b1100010 aaaai
b10100011 aaaaj
b11101110 aaaak
b101110011 aaaal
b1000000111 aaaam
b111110101 aaaan
b100000010 aaaao
b10111 aaabm
b10000 aaabn
b1001 aaabo

#14500
0aaaaa

#15000
1aaaaa
b1001 aaaaf
b11010 aaaag
b110010 aaaah
b1101100 aaaai
b10110010 aaaaj
b100000011 aaaak
b110001111 aaaal
b1000101011 aaaam
b1011010110 aaaan
b111110101 aaaao
b100000010 aaaap
b1100101 aaabl
b11000 aaabm
b10001 aaabn
b1010 aaabo

#15500
0aaaaa

#16000
1aaaaa
b1010 aaaaf
b11101 aaaag
b111000 aaaah
b1110110 aaaai
b11000001 aaaaj
b100011000 aaaak
b110101011 aaaal
b1001001111 aaaam
b1100000011 aaaan
b1100111011 aaaao
b1010111111 aaaap
b1000110001 aaaaq
b1100110 aaabl
b11001 aaabm
b10010 aaabn
b1011 aaabo

#16500
0aaaaa

#17000
1aaaaa
b1011 aaaaf
b100000 aaaag
b111110 aaaah
b10000000 aaaai
b11010000 aaaaj
b100101101 aaaak
b111000111 aaaal
b1001110011 aaaam
b1100110000 aaaan
b1101101001 aaaao
b10000000111 aaaap
b1111110001 aaaaq
b1000110001 aaaar
b1100111 aaabl
b11010 aaabm
b10011 aaabn
b1100 aaabo

#17500
0aaaaa

#18000
1aaaaa
b1100 aaaaf
b100011 aaaag
b1000100 aaaah
b10001010 aaaai
b11011111 aaaaj
b101000010 aaaak
b111100011 aaaal
b1010010111 aaaam
b1101011101 aaaan
b1110010111 aaaao
b10000110111 aaaap
b10100111100 aaaaq
b1111110001 aaaar
b1000110001 aaaas
b1101111 aaabk
b1101000 aaabl
b11011 aaabm
b10100 aaabn
b1101 aaabo

#18500
0aaaaa

#19000
1aaaaa
b1101 aaaaf
b100110 aaaag
b1001010 aaaah
b10010100 aaaai
b11101110 aaaaj
b101010111 aaaak
b111111111 aaaal
b1010111011 aaaam
b1110001010 aaaan
b1111000101 aaaao
b10001100111 aaaap
b10101101111 aaaaq
b11011111000 aaaar
b11000011100 aaaas
b10011001011 aaaat
b1110000 aaabk
b1101001 aaabl
b11100 aaabm
b10101 aaabn
b1110 aaabo

#19500
0aaaaa

#20000
1aaaaa
b1110 aaaaf
b101001 aaaag
b1010000 aaaah
b10011110 aaaai
b11111101 aaaaj
b101101100 aaaak
b1000011011 aaaal
b1011011111 aaaam
b1110110111 aaaan
b1111110011 aaaao
b10010010111 aaaap
b10110100010 aaaaq
b11100101111 aaaar
b100100101000 aaaas
b100010111100 aaaat
b10011001011 aaaau
b1110001 aaabk
b1101010 aaabl
b11101 aaabm
b10110 aaabn
b1111 aaabo

#20500
0aaaaa

#21000
1aaaaa
b1111 aaaaf
b101100 aaaag
b1010110 aaaah
b10101000 aaaai
b100001100 aaaaj
b110000001 aaaak
b1000110111 aaaal
b1100000011 aaaam
b1111100100 aaaan
b10000100001 aaaao
b10011000111 aaaap
b10111010101 aaaaq
b11101100110 aaaar
b100101100100 aaaas
b101111001110 aaaat
b100010111100 aaaau
b10011001011 aaaav
b1111001 aaabj
b1110010 aaabk
b1101011 aaabl
b11110 aaabm
b10111 aaabn
b10000 aaabo

#21500
0aaaaa

#22000
1aaaaa
b10000 aaaaf
b101111 aaaag
b1011100 aaaah
b10110010 aaaai
b100011011 aaaaj
b110010110 aaaak
b1001010011 aaaal
b1100100111 aaaam
b10000010001 aaaan
b10001001111 aaaao
b10011110111 aaaap
b11000001000 aaaaq
b11110011101 aaaar
b100110100000 aaaas
b110000010000 aaaat
b111100011101 aaaau
b110010000100 aaaav
b100100001100 aaaaw
b1111010 aaabj
b1110011 aaabk
b1101100 aaabl
b11111 aaabm
b11000 aaabn
b10001 aaabo

#22500
0aaaaa

#23000
1aaaaa
b10001 aaaaf
b110010 aaaag
b1100010 aaaah
b10111100 aaaai
b100101010 aaaaj
b110101011 aaaak
b1001101111 aaaal
b1101001011 aaaam
b10000111110 aaaan
b10001111101 aaaao
b10100100111 aaaap
b11000111011 aaaaq
b11111010100 aaaar
b100111011100 aaaas
b110001010010 aaaat
b111101100110 aaaau
b1001011101101 aaaav
b1000011001110 aaaaw
b100100001100 aaaax
b1111011 aaabj
b1110100 aaabk
b1101101 aaabl
b100000 aaabm
b11001 aaabn
b10010 aaabo

#23500
0aaaaa

#24000
1aaaaa
b10010 aaaaf
b110101 aaaag
b1101000 aaaah
b11000110 aaaai
b100111001 aaaaj
b111000000 aaaak
b1010001011 aaaal
b1101101111 aaaam
b10001101011 aaaan
b10010101011 aaaao
b10101010111 aaaap
b11001101110 aaaaq
b100000001011 aaaar
b101000011000 aaaas
b110010010100 aaaat
b111110101111 aaaau
b1001100111110 aaaav
b1011101000000 aaaaw
b1000011001110 aaaax
b100100001100 aaaay
b11001001 aaabi
b1111100 aaabj
b1110101 aaabk
b1101110 aaabl
b100001 aaabm
b11010 aaabn
b10011 aaabo

#24500
0aaaaa

#25000
1aaaaa
b10011 aaaaf
b111000 aaaag
b1101110 aaaah
b11010000 aaaai
b101001000 aaaaj
b111010101 aaaak
b1010100111 aaaal
b1110010011 aaaam
b10010011000 aaaan
b10011011001 aaaao
b10110000111 aaaap
b11010100001 aaaaq
b100001000010 aaaar
b101001010100 aaaas
b110011010110 aaaat
b111111111000 aaaau
b1001110001111 aaaav
b1011110011010 aaaaw
b1100000001001 aaaax
b1001001100000 aaaay
b101101100111 aaaaz
b11001010 aaabi
b1111101 aaabj
b1110110 aaabk
b1101111 aaabl
b100010 aaabm
b11011 aaabn
b10100 aaabo

#25500
0aaaaa

#26000
1aaaaa
b10100 aaaaf
b111011 aaaag
b1110100 aaaah
b11011010 aaaai
b101010111 aaaaj
b111101010 aaaak
b1011000011 aaaal
b1110110111 aaaam
b10011000101 aaaan
b10100000111 aaaao
b10110110111 aaaap
b11011010100 aaaaq
b100001111001 aaaar
b101010010000 aaaas
b110100011000 aaaat
b1000001000001 aaaau
b1001111100000 aaaav
b1011111110100 aaaaw
b1100001100100 aaaax
b1100110011101 aaaay
b1010010111110 aaaaz
b101101100111 aaaba
b11001011 aaabi
b1111110 aaabj
b1110111 aaabk
b1110000 aaabl
b100011 aaabm
b11100 aaabn
b10101 aaabo

#26500
0aaaaa

#27000
1aaaaa
b10101 aaaaf
b111110 aaaag
b1111010 aaaah
b11100100 aaaai
b101100110 aaaaj
b111111111 aaaak
b1011011111 aaaal
b1111011011 aaaam
b10011110010 aaaan
b10100110101 aaaao
b10111100111 aaaap
b11100000111 aaaaq
b100010110000 aaaar
b101011001100 aaaas
b110101011010 aaaat
b1000010001010 aaaau
b1010000110001 aaaav
b1100001001110 aaaaw
b1100010111111 aaaax
b1100111111010 aaaay
b1101111111110 aaaaz
b1010010111110 aaaba
b101101100111 aaabb
b11010011 aaabh
b11001100 aaabi
b1111111 aaabj
b1111000 aaabk
b1110001 aaabl
b100100 aaabm
b11101 aaabn
b10110 aaabo

#27500
0aaaaa

#28000
1aaaaa
b10110 aaaaf
b1000001 aaaag
b10000000 aaaah
b11101110 aaaai
b101110101 aaaaj
b1000010100 aaaak
b1011111011 aaaal
b1111111111 aaaam
b10100011111 aaaan
b10101100011 aaaao
b11000010111 aaaap
b11100111010 aaaaq
b100011100111 aaaar
b101100001000 aaaas
b110110011100 aaaat
b1000011010011 aaaau
b1010010000010 aaaav
b1100010101000 aaaaw
b1100100011010 aaaax
b1101001010111 aaaay
b1110001011110 aaaaz
b1111101001010 aaaba
b1100011011101 aaabb
b1000001011001 aaabc
b11010100 aaabh
b11001101 aaabi
b10000000 aaabj
b1111001 aaabk
b1110010 aaabl
b100101 aaabm
b11110 aaabn
b10111 aaabo

#28500
0aaaaa

#29000
1aaaaa
b10111 aaaaf
b1000100 aaaag
b10000110 aaaah
b11111000 aaaai
b110000100 aaaaj
b1000101001 aaaak
b1100010111 aaaal
b10000100011 aaaam
b10101001100 aaaan
b10110010001 aaaao
b11001000111 aaaap
b11101101101 aaaaq
b100100011110 aaaar
b101101000100 aaaas
b110111011110 aaaat
b1000100011100 aaaau
b1010011010011 aaaav
b1100100000010 aaaaw
b1100101110101 aaaax
b1101010110100 aaaay
b1110010111110 aaaaz
b1111110101110 aaaba
b10001101101110 aaabb
b1110111010101 aaabc
b1000001011001 aaabd
b11010101 aaabh
b11001110 aaabi
b10000001 aaabj
b1111010 aaabk
b1110011 aaabl
b100110 aaabm
b11111 aaabn
b11000 aaabo

#29500
0aaaaa

#30000
1aaaaa
b11000 aaaaf
b1000111 aaaag
b10001100 aaaah
b100000010 aaaai
b110010011 aaaaj
b1000111110 aaaak
b1100110011 aaaal
b10001000111 aaaam
b10101111001 aaaan
b10110111111 aaaao
b11001110111 aaaap
b11110100000 aaaaq
b100101010101 aaaar
b101110000000 aaaas
b111000100000 aaaat
b1000101100101 aaaau
b1010100100100 aaaav
b1100101011100 aaaaw
b1100111010000 aaaax
b1101100010001 aaaay
b1110100011110 aaaaz
b10000000010010 aaaba
b10001111010111 aaabb
b10100001101100 aaabc
b1110111010101 aaabd
b1000001011001 aaabe
b11011101 aaabg
b11010110 aaabh
b11001111 aaabi
b10000010 aaabj
b1111011 aaabk
b1110100 aaabl
b100111 aaabm
b100000 aaabn
b11001 aaabo

#30500
0aaaaa

#31000
1aaaaa
b11001 aaaaf
b1001010 aaaag
b10010010 aaaah
b100001100 aaaai
b110100010 aaaaj
b1001010011 aaaak
b1101001111 aaaal
b10001101011 aaaam
b10110100110 aaaan
b10111101101 aaaao
b11010100111 aaaap
b11111010011 aaaaq
b100110001100 aaaar
b101110111100 aaaas
b111001100010 aaaat
b1000110101110 aaaau
b1010101110101 aaaav
b1100110110110 aaaaw
b1101000101011 aaaax
b1101101101110 aaaay
b1110101111110 aaaaz
b10000001110110 aaaba
b10010001000000 aaabb
b10100011011011 aaabc
b10111001110111 aaabd
b10010010111101 aaabe
b1100000011110 aaabf
b11011110 aaabg
b11010111 aaabh
b11010000 aaabi
b10000011 aaabj
b1111100 aaabk
b1110101 aaabl
b101000 aaabm
b100001 aaabn
b11010 aaabo

#31500
0aaaaa

#32000
1aaaaa
b11010 aaaaf
b1001101 aaaag
b10011000 aaaah
b100010110 aaaai
b110110001 aaaaj
b1001101000 aaaak
b1101101011 aaaal
b10010001111 aaaam
b10111010011 aaaan
b11000011011 aaaao
b11011010111 aaaap
b100000000110 aaaaq
b100111000011 aaaar
b101111111000 aaaas
b111010100100 aaaat
b1000111110111 aaaau
b1010111000110 aaaav
b1101000010000 aaaaw
b1101010000110 aaaax
b1101111001011 aaaay
b1110111011110 aaaaz
b10000011011010 aaaba
b10010010101001 aaabb
b10100101001010 aaabc
b10111011101101 aaabd
b11010101100111 aaabe
b10110010001011 aaabf
b11011111 aaabg
b11011000 aaabh
b11010001 aaabi
b10000100 aaabj
b1111101 aaabk
b1110110 aaabl
b101001 aaabm
b100010 aaabn
b11011 aaabo

#32500
0aaaaa

#33000
1aaaaa
b11011 aaaaf
b1010000 aaaag
b10011110 aaaah
b100100000 aaaai
b111000000 aaaaj
b1001111101 aaaak
b1110000111 aaaal
b10010110011 aaaam
b11000000000 aaaan
b11001001001 aaaao
b11100000111 aaaap
b100000111001 aaaaq
b100111111010 aaaar
b110000110100 aaaas
b111011100110 aaaat
b1001001000000 aaaau
b1011000010111 aaaav
b1101001101010 aaaaw
b1101011100001 aaaax
b1110000101000 aaaay
b1111000111110 aaaaz
b10000100111110 aaaba
b10010100010010 aaabb
b10100110111001 aaabc
b10111101100011 aaabd
b11010111100101 aaabe
b11110100111110 aaabf
b11100000 aaabg
b11011001 aaabh
b11010010 aaabi
b10000101 aaabj
b1111110 aaabk
b1110111 aaabl
b101010 aaabm
b100011 aaabn
b11100 aaabo

#33500
0aaaaa

#34000
1aaaaa
b11100 aaaaf
b1010011 aaaag
b10100100 aaaah
b100101010 aaaai
b111001111 aaaaj
b1010010010 aaaak
b1110100011 aaaal
b10011010111 aaaam
b11000101101 aaaan
b11001110111 aaaao
b11100110111 aaaap
b100001101100 aaaaq
b101000110001 aaaar
b110001110000 aaaas
b111100101000 aaaat
b1001010001001 aaaau
b1011001101000 aaaav
b1101011000100 aaaaw
b1101100111100 aaaax
b1110010000101 aaaay
b1111010011110 aaaaz
b10000110100010 aaaba
b10010101111011 aaabb
b10101000101000 aaabc
b10111111011001 aaabd
b11011001100011 aaabe
b11110111000101 aaabf
b11100001 aaabg
b11011010 aaabh
b11010011 aaabi
b10000110 aaabj
b1111111 aaabk
b1111000 aaabl
b101011 aaabm
b100100 aaabn
b11101 aaabo

#34500
0aaaaa

#35000
1aaaaa
b11101 aaaaf
b1010110 aaaag
b10101010 aaaah
b100110100 aaaai
b111011110 aaaaj
b1010100111 aaaak
b1110111111 aaaal
b10011111011 aaaam
b11001011010 aaaan
b11010100101 aaaao
b11101100111 aaaap
b100010011111 aaaaq
b101001101000 aaaar
b110010101100 aaaas
b111101101010 aaaat
b1001011010010 aaaau
b1011010111001 aaaav
b1101100011110 aaaaw
b1101110010111 aaaax
b1110011100010 aaaay
b1111011111110 aaaaz
b10001000000110 aaaba
b10010111100100 aaabb
b10101010010111 aaabc
b11000001001111 aaabd
b11011011100001 aaabe
b11111001001100 aaabf
b11100010 aaabg
b11011011 aaabh
b11010100 aaabi
b10000111 aaabj
b10000000 aaabk
b1111001 aaabl
b101100 aaabm
b100101 aaabn
b11110 aaabo

#35500
0aaaaa

#36000
1aaaaa
b11110 aaaaf
b1011001 aaaag
b10110000 aaaah
b100111110 aaaai
b111101101 aaaaj
b1010111100 aaaak
b1111011011 aaaal
b10100011111 aaaam
b11010000111 aaaan
b11011010011 aaaao
b11110010111 aaaap
b100011010010 aaaaq
b101010011111 aaaar
b110011101000 aaaas
b111110101100 aaaat
b1001100011011 aaaau
b1011100001010 aaaav
b1101101111000 aaaaw
b1101111110010 aaaax
b1110100111111 aaaay
b1111101011110 aaaaz
b10001001101010 aaaba
b10011001001101 aaabb
b10101100000110 aaabc
b11000011000101 aaabd
b11011101011111 aaabe
b11111011010011 aaabf
b11100011 aaabg
b11011100 aaabh
b11010101 aaabi
b10001000 aaabj
b10000001 aaabk
b1111010 aaabl
b101101 aaabm
b100110 aaabn
b11111 aaabo

#36500
0aaaaa

#37000
1aaaaa
b11111 aaaaf
b1011100 aaaag
b10110110 aaaah
b101001000 aaaai
b111111100 aaaaj
b1011010001 aaaak
b1111110111 aaaal
b10101000011 aaaam
b11010110100 aaaan
b11100000001 aaaao
b11111000111 aaaap
b100100000101 aaaaq
b101011010110 aaaar
b110100100100 aaaas
b111111101110 aaaat
b1001101100100 aaaau
b1011101011011 aaaav
b1101111010010 aaaaw
b1110001001101 aaaax
b1110110011100 aaaay
b1111110111110 aaaaz
b10001011001110 aaaba
b10011010110110 aaabb
b10101101110101 aaabc
b11000100111011 aaabd
b11011111011101 aaabe
b11111101011010 aaabf
b11100100 aaabg
b11011101 aaabh
b11010110 aaabi
b10001001 aaabj
b10000010 aaabk
b1111011 aaabl
b101110 aaabm
b100111 aaabn
b100000 aaabo

#37500
0aaaaa

#38000
1aaaaa
b100000 aaaaf
b1011111 aaaag
b10111100 aaaah
b101010010 aaaai
b1000001011 aaaaj
b1011100110 aaaak
b10000010011 aaaal
b10101100111 aaaam
b11011100001 aaaan
b11100101111 aaaao
b11111110111 aaaap
b100100111000 aaaaq
b101100001101 aaaar
b110101100000 aaaas
b1000000110000 aaaat
b1001110101101 aaaau
b1011110101100 aaaav
b1110000101100 aaaaw
b1110010101000 aaaax
b1110111111001 aaaay
b10000000011110 aaaaz
b10001100110010 aaaba
b10011100011111 aaabb
b10101111100100 aaabc
b11000110110001 aaabd
b11100001011011 aaabe
b11111111100001 aaabf
b11100101 aaabg
b11011110 aaabh
b11010111 aaabi
b10001010 aaabj
b10000011 aaabk
b1111100 aaabl
b101111 aaabm
b101000 aaabn
b100001 aaabo

#38500
0aaaaa

#39000
1aaaaa
b100001 aaaaf
b1100010 aaaag
b11000010 aaaah
b101011100 aaaai
b1000011010 aaaaj
b1011111011 aaaak
b10000101111 aaaal
b10110001011 aaaam
b11100001110 aaaan
b11101011101 aaaao
b100000100111 aaaap
b100101101011 aaaaq
b101101000100 aaaar
b110110011100 aaaas
b1000001110010 aaaat
b1001111110110 aaaau
b1011111111101 aaaav
b1110010000110 aaaaw
b1110100000011 aaaax
b1111001010110 aaaay
b10000001111110 aaaaz
b10001110010110 aaaba
b10011110001000 aaabb
b10110001010011 aaabc
b11001000100111 aaabd
b11100011011001 aaabe
b100000001101000 aaabf
b11100110 aaabg
b11011111 aaabh
b11011000 aaabi
b10001011 aaabj
b10000100 aaabk
b1111101 aaabl
b110000 aaabm
b101001 aaabn
b100010 aaabo

#39500
0aaaaa

#40000
1aaaaa
b100010 aaaaf
b1100101 aaaag
b11001000 aaaah
b101100110 aaaai
b1000101001 aaaaj
b1100010000 aaaak
b10001001011 aaaal
b10110101111 aaaam
b11100111011 aaaan
b11110001011 aaaao
b100001010111 aaaap
b100110011110 aaaaq
b101101111011 aaaar
b110111011000 aaaas
b1000010110100 aaaat
b1010000111111 aaaau
b1100001001110 aaaav
b1110011100000 aaaaw
b1110101011110 aaaax
b1111010110011 aaaay
b10000011011110 aaaaz
b10001111111010 aaaba
b10011111110001 aaabb
b10110011000010 aaabc
b11001010011101 aaabd
b11100101010111 aaabe
b100000011101111 aaabf
b11100111 aaabg
b11100000 aaabh
b11011001 aaabi
b10001100 aaabj
b10000101 aaabk
b1111110 aaabl
b110001 aaabm
b101010 aaabn
b100011 aaabo

#40500
0aaaaa

#41000
1aaaaa
b100011 aaaaf
b1101000 aaaag
b11001110 aaaah
b101110000 aaaai
b1000111000 aaaaj
b1100100101 aaaak
b10001100111 aaaal
b10111010011 aaaam
b11101101000 aaaan
b11110111001 aaaao
b100010000111 aaaap
b100111010001 aaaaq
b101110110010 aaaar
b111000010100 aaaas
b1000011110110 aaaat
b1010010001000 aaaau
b1100010011111 aaaav
b1110100111010 aaaaw
b1110110111001 aaaax
b1111100010000 aaaay
b10000100111110 aaaaz
b10010001011110 aaaba
b10100001011010 aaabb
b10110100110001 aaabc
b11001100010011 aaabd
b11100111010101 aaabe
b100000101110110 aaabf
b11101000 aaabg
b11100001 aaabh
b11011010 aaabi
b10001101 aaabj
b10000110 aaabk
b1111111 aaabl
b110010 aaabm
b101011 aaabn
b100100 aaabo

#41500
0aaaaa

#42000
1aaaaa
b100100 aaaaf
b1101011 aaaag
b11010100 aaaah
b101111010 aaaai
b1001000111 aaaaj
b1100111010 aaaak
b10010000011 aaaal
b10111110111 aaaam
b11110010101 aaaan
b11111100111 aaaao
b100010110111 aaaap
b101000000100 aaaaq
b101111101001 aaaar
b111001010000 aaaas
b1000100111000 aaaat
b1010011010001 aaaau
b1100011110000 aaaav
b1110110010100 aaaaw
b1111000010100 aaaax
b1111101101101 aaaay
b10000110011110 aaaaz
b10010011000010 aaaba
b10100011000011 aaabb
b10110110100000 aaabc
b11001110001001 aaabd
b11101001010011 aaabe
b100000111111101 aaabf
b11101001 aaabg
b11100010 aaabh
b11011011 aaabi
b10001110 aaabj
b10000111 aaabk
b10000000 aaabl
b110011 aaabm
b101100 aaabn
b100101 aaabo

#42500
0aaaaa

#43000
1aaaaa
b100101 aaaaf
b1101110 aaaag
b11011010 aaaah
b110000100 aaaai
b1001010110 aaaaj
b1101001111 aaaak
b10010011111 aaaal
b11000011011 aaaam
b11111000010 aaaan
b100000010101 aaaao
b100011100111 aaaap
b101000110111 aaaaq
b110000100000 aaaar
b111010001100 aaaas
b1000101111010 aaaat
b1010100011010 aaaau
b1100101000001 aaaav
b1110111101110 aaaaw
b1111001101111 aaaax
b1111111001010 aaaay
b10000111111110 aaaaz
b10010100100110 aaaba
b10100100101100 aaabb
b10111000001111 aaabc
b11001111111111 aaabd
b11101011010001 aaabe
b100001010000100 aaabf
b11101010 aaabg
b11100011 aaabh
b11011100 aaabi
b10001111 aaabj
b10001000 aaabk
b10000001 aaabl
b110100 aaabm
b101101 aaabn
b100110 aaabo

#43500
0aaaaa

#44000
1aaaaa
b100110 aaaaf
b1110001 aaaag
b11100000 aaaah
b110001110 aaaai
b1001100101 aaaaj
b1101100100 aaaak
b10010111011 aaaal
b11000111111 aaaam
b11111101111 aaaan
b100001000011 aaaao
b100100010111 aaaap
b101001101010 aaaaq
b110001010111 aaaar
b111011001000 aaaas
b1000110111100 aaaat
b1010101100011 aaaau
b1100110010010 aaaav
b1111001001000 aaaaw
b1111011001010 aaaax
b10000000100111 aaaay
b10001001011110 aaaaz
b10010110001010 aaaba
b10100110010101 aaabb
b10111001111110 aaabc
b11010001110101 aaabd
b11101101001111 aaabe
b100001100001011 aaabf
b11101011 aaabg
b11100100 aaabh
b11011101 aaabi
b10010000 aaabj
b10001001 aaabk
b10000010 aaabl
b110101 aaabm
b101110 aaabn
b100111 aaabo

#44500
0aaaaa

#45000
1aaaaa
b100111 aaaaf
b1110100 aaaag
b11100110 aaaah
b110011000 aaaai
b1001110100 aaaaj
b1101111001 aaaak
b10011010111 aaaal
b11001100011 aaaam
b100000011100 aaaan
b100001110001 aaaao
b100101000111 aaaap
b101010011101 aaaaq
b110010001110 aaaar
b111100000100 aaaas
b1000111111110 aaaat
b1010110101100 aaaau
b1100111100011 aaaav
b1111010100010 aaaaw
b1111100100101 aaaax
b10000010000100 aaaay
b10001010111110 aaaaz
b10010111101110 aaaba
b10100111111110 aaabb
b10111011101101 aaabc
b11010011101011 aaabd
b11101111001101 aaabe
b100001110010010 aaabf
b11101100 aaabg
b11100101 aaabh
b11011110 aaabi
b10010001 aaabj
b10001010 aaabk
b10000011 aaabl
b110110 aaabm
b101111 aaabn
b101000 aaabo

#45500
0aaaaa

#46000
1aaaaa
b101000 aaaaf
b1110111 aaaag
b11101100 aaaah
b110100010 aaaai
b1010000011 aaaaj
b1110001110 aaaak
b10011110011 aaaal
b11010000111 aaaam
b100001001001 aaaan
b100010011111 aaaao
b100101110111 aaaap
b101011010000 aaaaq
b110011000101 aaaar
b111101000000 aaaas
b1001001000000 aaaat
b1010111110101 aaaau
b1101000110100 aaaav
b1111011111100 aaaaw
b1111110000000 aaaax
b10000011100001 aaaay
b10001100011110 aaaaz
b10011001010010 aaaba
b10101001100111 aaabb
b10111101011100 aaabc
b11010101100001 aaabd
b11110001001011 aaabe
b100010000011001 aaabf
b11101101 aaabg
b11100110 aaabh
b11011111 aaabi
b10010010 aaabj
b10001011 aaabk
b10000100 aaabl
b110111 aaabm
b110000 aaabn
b101001 aaabo

#46500
0aaaaa

#47000
1aaaaa
b101001 aaaaf
b1111010 aaaag
b11110010 aaaah
b110101100 aaaai
b1010010010 aaaaj
b1110100011 aaaak
b10100001111 aaaal
b11010101011 aaaam
b100001110110 aaaan
b100011001101 aaaao
b100110100111 aaaap
b101100000011 aaaaq
b110011111100 aaaar
b111101111100 aaaas
b1001010000010 aaaat
b1011000111110 aaaau
b1101010000101 aaaav
b1111101010110 aaaaw
b1111111011011 aaaax
b10000100111110 aaaay
b10001101111110 aaaaz
b10011010110110 aaaba
b10101011010000 aaabb
b10111111001011 aaabc
b11010111010111 aaabd
b11110011001001 aaabe
b100010010100000 aaabf
b11101110 aaabg
b11100111 aaabh
b11100000 aaabi
b10010011 aaabj
b10001100 aaabk
b10000101 aaabl
b111000 aaabm
b110001 aaabn
b101010 aaabo

#47500
0aaaaa

#48000
1aaaaa
b101010 aaaaf
b1111101 aaaag
b11111000 aaaah
b110110110 aaaai
b1010100001 aaaaj
b1110111000 aaaak
b10100101011 aaaal
b11011001111 aaaam
b100010100011 aaaan
b100011111011 aaaao
b100111010111 aaaap
b101100110110 aaaaq
b110100110011 aaaar
b111110111000 aaaas
b1001011000100 aaaat
b1011010000111 aaaau
b1101011010110 aaaav
b1111110110000 aaaaw
b10000000110110 aaaax
b10000110011011 aaaay
b10001111011110 aaaaz
b10011100011010 aaaba
b10101100111001 aaabb
b11000000111010 aaabc
b11011001001101 aaabd
b11110101000111 aaabe
b100010100100111 aaabf
b11101111 aaabg
b11101000 aaabh
b11100001 aaabi
b10010100 aaabj
b10001101 aaabk
b10000110 aaabl
b111001 aaabm
b110010 aaabn
b101011 aaabo

#48500
0aaaaa

