VCD_Examples/SAM_concurrent operation_illustrated.vcd
$date
	Tue Feb 23 02:50:01 2021
$end
$version
	GTKWave Analyzer v3.3.86 (w)1999-2017 BSI
$end
$timescale
	1ps
$end
$scope module SystemC $end
$scope module SAM_tb $end
$scope module dut $end
$scope module channels_0 $end
$var wire 32 ( addr[31:0] $end
$upscope $end
$upscope $end
$var wire 32 < external_channel_1_read_bus_0[31:0] $end
$var wire 32 8 external_channel_0_write_bus_0[31:0] $end
$scope module global_control_channel $end
$var wire 1 " reset $end
$var wire 1 # clock $end
$var wire 1 $ enable $end
$upscope $end
$scope module dut $end
$scope module mem $end
$var wire 32 3 ram_20_0[31:0] $end
$var wire 32 2 ram_19_0[31:0] $end
$var wire 32 1 ram_18_0[31:0] $end
$var wire 32 0 ram_17_0[31:0] $end
$upscope $end
$upscope $end
$scope module global_control_channel $end
$var wire 1 % program $end
$upscope $end
$scope module dut $end
$scope module mem $end
$var wire 32 / ram_16_0[31:0] $end
$var wire 32 . ram_15_0[31:0] $end
$var wire 32 - ram_14_0[31:0] $end
$var wire 32 , ram_13_0[31:0] $end
$var wire 32 + ram_12_0[31:0] $end
$var wire 32 * ram_11_0[31:0] $end
$var wire 32 ) ram_10_0[31:0] $end
$upscope $end
$scope module channels_0 $end
$var wire 32 & write_channel_data_0[31:0] $end
$upscope $end
$scope module generator_1 $end
$var wire 32 ; execute_index[31:0] $end
$upscope $end
$scope module generator_0 $end
$var wire 32 ' current_ram_index[31:0] $end
$var wire 32 7 execute_index[31:0] $end
$upscope $end
$scope module channels_1 $end
$var wire 32 5 mode[31:0] $end
$var wire 1 9 enabled $end
$var wire 32 : addr[31:0] $end
$upscope $end
$scope module channels_0 $end
$var wire 32 4 mode[31:0] $end
$var wire 1 6 enabled $end
$upscope $end
$upscope $end
$upscope $end
$upscope $end
$enddefinitions $end
$dumpvars
#0
b0 ,
b0 7
b0 1
1"
b0 (
b0 <
b0 *
b0 2
b0 +
0%
1#
b0 )
b0 &
b0 '
b0 0
b0 ;
b0 -
b0 .
0$
b0 5
b0 8
b0 :
b0 /
09
b0 3
b0 4
06
#500
0#
#1000
1#
0"
#1500
0#
#2000
1#
#2500
0#
#3000
1#
#3500
0#
#4000
1#
#4500
0#
#5000
1#
#5500
0#
#6000
1#
#6500
0#
#7000
1#
#7500
0#
#8000
1#
#8500
0#
#9000
1#
#9500
0#
#10000
1#
#10500
0#
#11000
1#
#11500
0#
#12000
1#
#12500
0#
#13000
1#
#13500
0#
#14000
1#
#14500
0#
#15000
1#
#15500
0#
#16000
1#
#16500
0#
#17000
1#
#17500
0#
#18000
1#
#18500
0#
#19000
1#
#19500
0#
#20000
1#
#20500
0#
#21000
1#
#21500
0#
#22000
1#
1"
#22500
0#
#23000
1#
0"
b1010 (
1%
b1010 '
b1 4
#23500
0#
#24000
1#
0%
16
b1 &
b1 8
1$
#24500
0#
#25000
1#
b1011 (
b1 )
b10 8
b10 &
b1011 '
#25500
0#
#26000
1#
b1100 '
b10 *
b1100 (
b11 &
b11 8
#26500
0#
#27000
1#
b100 8
b1101 '
b11 +
b100 &
b1101 (
#27500
0#
#28000
1#
b1110 (
b100 ,
b1110 '
b101 8
b101 &
#28500
0#
#29000
1#
b110 &
b1111 '
b1111 (
b110 8
b101 -
#29500
0#
#30000
1#
b10000 '
b111 &
b111 8
b10000 (
b110 .
#30500
0#
#31000
1#
b10001 '
b10001 (
b1000 8
b1000 &
b111 /
#31500
0#
#32000
1#
b1000 0
b1001 &
b10010 (
b10010 '
b1001 8
#32500
0#
#33000
1#
b1010 8
b1001 1
b10011 '
b1010 &
b10011 (
#33500
0#
#34000
1#
b0 (
b1 7
06
b1010 2
b0 '
